…
    Calculating cluster 8

    Calculating cluster 9

    Calculating cluster 10

    Calculating cluster 11

``` r
pbmc.markers |> 
    group_by(cluster) |>
    dplyr::filter(avg_log2FC > 1)
```

    # A tibble: 6,423 × 7
    # Groups:   cluster [12]
           p_val avg_log2FC pct.1 pct.2 p_val_adj cluster gene   
           <dbl>      <dbl> <dbl> <dbl>     <dbl> <fct>   <chr>  
     1 1.25e-114       1.60 0.979 0.634 1.57e-110 0       LTB    
     2 4.54e-112       1.46 0.945 0.448 5.68e-108 0       IL32   
     3 1.03e- 95       1.64 0.77  0.302 1.29e- 91 0       IL7R   
     4 1.91e- 73       3.93 0.227 0.018 2.39e- 69 0       TNFRSF4
     5 1.38e- 72       1.08 0.893 0.422 1.72e- 68 0       CD3D   
     6 4.56e- 72       2.44 0.426 0.103 5.71e- 68 0       AQP3   
     7 1.42e- 71       1.05 0.932 0.596 1.77e- 67 0       LDHB   
     8 3.15e- 59       1.75 0.604 0.239 3.95e- 55 0       CD2    
     9 6.54e- 57       2.46 0.297 0.058 8.19e- 53 0       CD40LG 
    10 6.33e- 52       1.03 0.779 0.399 7.93e- 48 0       CD3E   
    # ℹ 6,413 more rows
…
